<?xml version="1.0" encoding="UTF-8" standalone="no"?>
<graphml xmlns="http://graphml.graphdrawing.org/xmlns" xmlns:java="http://www.yworks.com/xml/yfiles-common/1.0/java" xmlns:sys="http://www.yworks.com/xml/yfiles-common/markup/primitives/2.0" xmlns:x="http://www.yworks.com/xml/yfiles-common/markup/2.0" xmlns:xsi="http://www.w3.org/2001/XMLSchema-instance" xmlns:y="http://www.yworks.com/xml/graphml" xmlns:yed="http://www.yworks.com/xml/yed/3" xsi:schemaLocation="http://graphml.graphdrawing.org/xmlns http://www.yworks.com/xml/schema/graphml/1.1/ygraphml.xsd">
  <!--Created by yEd 3.16.1-->
  <key attr.name="Description" attr.type="string" for="graph" id="d0"/>
  <key for="port" id="d1" yfiles.type="portgraphics"/>
  <key for="port" id="d2" yfiles.type="portgeometry"/>
  <key for="port" id="d3" yfiles.type="portuserdata"/>
  <key attr.name="url" attr.type="string" for="node" id="d4"/>
  <key attr.name="description" attr.type="string" for="node" id="d5"/>
  <key for="node" id="d6" yfiles.type="nodegraphics"/>
  <key for="graphml" id="d7" yfiles.type="resources"/>
  <key attr.name="url" attr.type="string" for="edge" id="d8"/>
  <key attr.name="description" attr.type="string" for="edge" id="d9"/>
  <key for="edge" id="d10" yfiles.type="edgegraphics"/>
  <graph edgedefault="directed" id="G">
    <data key="d0"/>
    <node id="n0" yfiles.foldertype="group">
      <data key="d4"/>
      <data key="d6">
        <y:ProxyAutoBoundsNode>
          <y:Realizers active="0">
            <y:GroupNode>
              <y:Geometry height="480.02695312500003" width="683.4756914957064" x="178.50684090728373" y="-284.4609375"/>
              <y:Fill color="#CAECFF80" transparent="false"/>
              <y:BorderStyle color="#666699" type="dotted" width="1.0"/>
              <y:NodeLabel alignment="right" autoSizePolicy="node_width" backgroundColor="#99CCFF" borderDistance="0.0" fontFamily="Dialog" fontSize="15" fontStyle="plain" hasLineColor="false" height="21.4609375" horizontalTextPosition="center" iconTextGap="4" modelName="internal" modelPosition="t" textColor="#000000" verticalTextPosition="bottom" visible="true" width="683.4756914957064" x="0.0" y="0.0">Índice Hawk</y:NodeLabel>
              <y:Shape type="roundrectangle"/>
              <y:State closed="false" closedHeight="50.0" closedWidth="50.0" innerGraphDisplayEnabled="false"/>
              <y:Insets bottom="5" bottomF="5.0" left="5" leftF="5.0" right="5" rightF="5.0" top="5" topF="5.0"/>
              <y:BorderInsets bottom="21" bottomF="21.044956917152092" left="12" leftF="12.0" right="26" rightF="25.889850801916396" top="9" topF="9.228515625"/>
            </y:GroupNode>
            <y:GroupNode>
              <y:Geometry height="365.0" width="669.0" x="300.6552734375" y="-285.37646484375"/>
              <y:Fill color="#CAECFF80" transparent="false"/>
              <y:BorderStyle color="#666699" type="dotted" width="1.0"/>
              <y:NodeLabel alignment="right" autoSizePolicy="node_width" backgroundColor="#99CCFF" borderDistance="0.0" fontFamily="Dialog" fontSize="15" fontStyle="plain" hasLineColor="false" height="21.4609375" horizontalTextPosition="center" iconTextGap="4" modelName="internal" modelPosition="t" textColor="#000000" verticalTextPosition="bottom" visible="true" width="669.0" x="0.0" y="0.0">Hawk Index</y:NodeLabel>
              <y:Shape type="roundrectangle"/>
              <y:State closed="true" closedHeight="365.0" closedWidth="669.0" innerGraphDisplayEnabled="false"/>
              <y:Insets bottom="5" bottomF="5.0" left="5" leftF="5.0" right="5" rightF="5.0" top="5" topF="5.0"/>
              <y:BorderInsets bottom="0" bottomF="0.0" left="0" leftF="0.0" right="0" rightF="0.0" top="0" topF="0.0"/>
            </y:GroupNode>
          </y:Realizers>
        </y:ProxyAutoBoundsNode>
      </data>
      <graph edgedefault="directed" id="n0:">
        <node id="n0::n0" yfiles.foldertype="group">
          <data key="d6">
            <y:TableNode configuration="com.yworks.bpmn.Pool">
              <y:Geometry height="210.62890625" width="360.08730468750014" x="195.50684090728373" y="-248.771484375"/>
              <y:Fill color="#FFF2BC" color2="#D4D4D4CC" transparent="false"/>
              <y:BorderStyle color="#000000" type="line" width="1.0"/>
              <y:NodeLabel alignment="center" autoSizePolicy="content" fontFamily="Dialog" fontSize="15" fontStyle="plain" hasBackgroundColor="false" hasLineColor="false" height="21.4609375" horizontalTextPosition="center" iconTextGap="4" modelName="internal" modelPosition="l" rotationAngle="270.0" textColor="#000000" verticalTextPosition="bottom" visible="true" width="179.99365234375" x="4.0" y="15.317626953125">Índice de metamodelos</y:NodeLabel>
              <y:NodeLabel alignment="center" autoSizePolicy="content" fontFamily="Dialog" fontSize="12" fontStyle="plain" hasBackgroundColor="false" hasLineColor="false" hasText="false" height="4.0" horizontalTextPosition="center" iconTextGap="4" modelName="custom" rotationAngle="270.0" textColor="#000000" verticalTextPosition="bottom" visible="true" width="4.0" x="33.0" y="49.271484375">
                <y:LabelModel>
                  <y:RowNodeLabelModel offset="3.0"/>
                </y:LabelModel>
                <y:ModelParameter>
                  <y:RowNodeLabelModelParameter horizontalPosition="0.0" id="row_0" inside="true"/>
                </y:ModelParameter>
              </y:NodeLabel>
              <y:NodeLabel alignment="center" autoSizePolicy="content" fontFamily="Dialog" fontSize="12" fontStyle="plain" hasBackgroundColor="false" hasLineColor="false" hasText="false" height="4.0" horizontalTextPosition="center" iconTextGap="4" modelName="custom" rotationAngle="270.0" textColor="#000000" verticalTextPosition="bottom" visible="true" width="4.0" x="33.0" y="111.814453125">
                <y:LabelModel>
                  <y:RowNodeLabelModel offset="3.0"/>
                </y:LabelModel>
                <y:ModelParameter>
                  <y:RowNodeLabelModelParameter horizontalPosition="0.0" id="row_1" inside="true"/>
                </y:ModelParameter>
              </y:NodeLabel>
              <y:NodeLabel alignment="center" autoSizePolicy="content" fontFamily="Dialog" fontSize="12" fontStyle="plain" hasBackgroundColor="false" hasLineColor="false" hasText="false" height="4.0" horizontalTextPosition="center" iconTextGap="4" modelName="custom" rotationAngle="270.0" textColor="#000000" verticalTextPosition="bottom" visible="true" width="4.0" x="33.0" y="174.357421875">
                <y:LabelModel>
                  <y:RowNodeLabelModel offset="3.0"/>
                </y:LabelModel>
                <y:ModelParameter>
                  <y:RowNodeLabelModelParameter horizontalPosition="0.0" id="row_2" inside="true"/>
                </y:ModelParameter>
              </y:NodeLabel>
              <y:NodeLabel alignment="center" autoSizePolicy="content" fontFamily="Dialog" fontSize="12" fontStyle="plain" hasBackgroundColor="false" hasLineColor="false" height="17.96875" horizontalTextPosition="center" iconTextGap="4" modelName="custom" textColor="#000000" verticalTextPosition="bottom" visible="true" width="37.55078125" x="133.02734375" y="3.0">Clave<y:LabelModel>
                  <y:ColumnNodeLabelModel offset="3.0"/>
                </y:LabelModel>
                <y:ModelParameter>
                  <y:ColumnNodeLabelModelParameter id="column_0" inside="true" verticalPosition="0.0"/>
                </y:ModelParameter>
              </y:NodeLabel>
              <y:NodeLabel alignment="center" autoSizePolicy="content" fontFamily="Dialog" fontSize="12" fontStyle="plain" hasBackgroundColor="false" hasLineColor="false" height="17.96875" horizontalTextPosition="center" iconTextGap="4" modelName="custom" textColor="#000000" verticalTextPosition="bottom" visible="true" width="35.171875" x="284.59052734375007" y="3.0">Valor<y:LabelModel>
                  <y:ColumnNodeLabelModel offset="3.0"/>
                </y:LabelModel>
                <y:ModelParameter>
                  <y:ColumnNodeLabelModelParameter id="column_1" inside="true" verticalPosition="0.0"/>
                </y:ModelParameter>
              </y:NodeLabel>
              <y:StyleProperties>
                <y:Property class="java.awt.Color" name="com.yworks.bpmn.icon.line.color" value="#000000"/>
                <y:Property name="y.view.tabular.TableNodePainter.ALTERNATE_ROW_STYLE">
                  <y:SimpleStyle fillColor="#474A4340" lineColor="#000000" lineType="line" lineWidth="1.0"/>
                </y:Property>
                <y:Property name="y.view.tabular.TableNodePainter.ALTERNATE_COLUMN_SELECTION_STYLE">
                  <y:SimpleStyle fillColor="#474A4380" lineColor="#000000" lineType="line" lineWidth="3.0"/>
                </y:Property>
                <y:Property name="y.view.tabular.TableNodePainter.ALTERNATE_ROW_SELECTION_STYLE">
                  <y:SimpleStyle fillColor="#474A4380" lineColor="#000000" lineType="line" lineWidth="3.0"/>
                </y:Property>
                <y:Property class="java.awt.Color" name="POOL_LANE_COLOR_ALTERNATING" value="#ffffff"/>
                <y:Property class="java.awt.Color" name="POOL_LANE_COLOR_MAIN" value="#ffffff"/>
                <y:Property class="java.lang.String" name="POOL_LANE_STYLE" value="LANE_STYLE_ROWS"/>
                <y:Property class="java.awt.Color" name="com.yworks.bpmn.icon.fill2" value="#d4d4d4"/>
                <y:Property class="java.awt.Color" name="com.yworks.bpmn.icon.fill" value="#ffffff"/>
                <y:Property class="com.yworks.yfiles.bpmn.view.BPMNTypeEnum" name="com.yworks.bpmn.type" value="POOL_TYPE_LANE_AND_COLUMN"/>
                <y:Property name="y.view.tabular.TableNodePainter.ALTERNATE_COLUMN_STYLE">
                  <y:SimpleStyle fillColor="#474A4340" lineColor="#000000" lineType="line" lineWidth="1.0"/>
                </y:Property>
              </y:StyleProperties>
              <y:State autoResize="true" closed="false" closedHeight="80.0" closedWidth="100.0"/>
              <y:Insets bottom="0" bottomF="0.0" left="0" leftF="0.0" right="0" rightF="0.0" top="0" topF="0.0"/>
              <y:BorderInsets bottom="136" bottomF="136.357421875" left="63" leftF="63.2431640625" right="26" rightF="26.396992187500132" top="11" topF="11.271484375"/>
              <y:Table autoResizeTable="true" defaultColumnWidth="180.0" defaultMinimumColumnWidth="30.0" defaultMinimumRowHeight="30.0" defaultRowHeight="100.0">
                <y:DefaultColumnInsets bottom="3.0" left="3.0" right="3.0" top="20.0"/>
                <y:DefaultRowInsets bottom="3.0" left="20.0" right="3.0" top="3.0"/>
                <y:Insets bottom="0.0" left="30.0" right="0.0" top="0.0"/>
                <y:Columns>
                  <y:Column id="column_0" minimumWidth="80.625" width="203.60546875">
                    <y:Insets bottom="3.0" left="3.0" right="3.0" top="20.0"/>
                  </y:Column>
                  <y:Column id="column_1" minimumWidth="80.625" width="97.14199218750014">
                    <y:Insets bottom="3.0" left="3.0" right="3.0" top="20.0"/>
                  </y:Column>
                </y:Columns>
                <y:Rows>
                  <y:Row height="62.54296875" id="row_0" minimumHeight="62.54296875">
                    <y:Insets bottom="3.0" left="20.0" right="3.0" top="3.0"/>
                  </y:Row>
                  <y:Row height="62.54296875" id="row_1" minimumHeight="62.54296875">
                    <y:Insets bottom="3.0" left="20.0" right="3.0" top="3.0"/>
                  </y:Row>
                  <y:Row height="62.54296875" id="row_2" minimumHeight="62.54296875">
                    <y:Insets bottom="3.0" left="20.0" right="3.0" top="3.0"/>
                  </y:Row>
                </y:Rows>
              </y:Table>
            </y:TableNode>
          </data>
          <graph edgedefault="directed" id="n0::n0:">
            <node id="n0::n0::n0">
              <data key="d6">
                <y:GenericNode configuration="com.yworks.entityRelationship.attribute">
                  <y:Geometry height="40.0" width="47.0" x="479.19715340728374" y="-217.5"/>
                  <y:Fill color="#FFFFFF" color2="#FFFFFF" transparent="false"/>
                  <y:BorderStyle color="#000000" type="dashed" width="1.0"/>
                  <y:NodeLabel alignment="center" autoSizePolicy="content" fontFamily="Dialog" fontSize="12" fontStyle="plain" hasBackgroundColor="false" hasLineColor="false" hasText="false" height="4.0" horizontalTextPosition="center" iconTextGap="4" modelName="custom" textColor="#000000" verticalTextPosition="bottom" visible="true" width="4.0" x="21.5" y="18.0">
                    <y:LabelModel>
                      <y:SmartNodeLabelModel distance="4.0"/>
                    </y:LabelModel>
                    <y:ModelParameter>
                      <y:SmartNodeLabelModelParameter labelRatioX="0.0" labelRatioY="0.0" nodeRatioX="0.0" nodeRatioY="0.0" offsetX="0.0" offsetY="0.0" upX="0.0" upY="-1.0"/>
                    </y:ModelParameter>
                  </y:NodeLabel>
                  <y:StyleProperties>
                    <y:Property class="java.lang.Boolean" name="y.view.ShadowNodePainter.SHADOW_PAINTING" value="true"/>
                  </y:StyleProperties>
                </y:GenericNode>
              </data>
            </node>
            <node id="n0::n0::n1">
              <data key="d6">
                <y:ShapeNode>
                  <y:Geometry height="30.0" width="30.0" x="323.41504403228373" y="-212.5"/>
                  <y:Fill hasColor="false" transparent="false"/>
                  <y:BorderStyle hasColor="false" type="line" width="1.0"/>
                  <y:NodeLabel alignment="center" autoSizePolicy="content" fontFamily="Dialog" fontSize="12" fontStyle="plain" hasBackgroundColor="false" hasLineColor="false" height="17.96875" horizontalTextPosition="center" iconTextGap="4" modelName="custom" textColor="#000000" verticalTextPosition="bottom" visible="true" width="59.330078125" x="-14.6650390625" y="6.015625">http://bib<y:LabelModel>
                      <y:SmartNodeLabelModel distance="4.0"/>
                    </y:LabelModel>
                    <y:ModelParameter>
                      <y:SmartNodeLabelModelParameter labelRatioX="0.0" labelRatioY="0.0" nodeRatioX="0.0" nodeRatioY="0.0" offsetX="0.0" offsetY="0.0" upX="0.0" upY="-1.0"/>
                    </y:ModelParameter>
                  </y:NodeLabel>
                  <y:Shape type="rectangle"/>
                </y:ShapeNode>
              </data>
            </node>
          </graph>
        </node>
        <node id="n0::n1">
          <data key="d6">
            <y:GenericNode configuration="com.yworks.entityRelationship.big_entity">
              <y:Geometry height="83.666015625" width="137.0" x="632.3076392471276" y="85.85504308284794"/>
              <y:Fill color="#E8EEF7" color2="#B7C9E3" transparent="false"/>
              <y:BorderStyle color="#000000" type="line" width="1.0"/>
              <y:NodeLabel alignment="center" autoSizePolicy="content" backgroundColor="#B7C9E3" configuration="com.yworks.entityRelationship.label.name" fontFamily="Dialog" fontSize="12" fontStyle="plain" hasLineColor="false" height="17.96875" horizontalTextPosition="center" iconTextGap="4" modelName="internal" modelPosition="t" textColor="#000000" verticalTextPosition="bottom" visible="true" width="48.09765625" x="44.451171875" y="4.0">Fichero</y:NodeLabel>
              <y:NodeLabel alignment="left" autoSizePolicy="content" configuration="com.yworks.entityRelationship.label.attributes" fontFamily="Dialog" fontSize="12" fontStyle="plain" hasBackgroundColor="false" hasLineColor="false" height="45.90625" horizontalTextPosition="center" iconTextGap="4" modelName="custom" textColor="#000000" verticalTextPosition="bottom" visible="true" width="131.435546875" x="2.0" y="29.96875">nombre = "bib1.xmi"
revisión = 145
tipo = "EMF"<y:LabelModel>
                  <y:ErdAttributesNodeLabelModel/>
                </y:LabelModel>
                <y:ModelParameter>
                  <y:ErdAttributesNodeLabelModelParameter/>
                </y:ModelParameter>
              </y:NodeLabel>
              <y:StyleProperties>
                <y:Property class="java.lang.Boolean" name="y.view.ShadowNodePainter.SHADOW_PAINTING" value="true"/>
              </y:StyleProperties>
            </y:GenericNode>
          </data>
        </node>
        <node id="n0::n2">
          <data key="d6">
            <y:GenericNode configuration="com.yworks.entityRelationship.big_entity">
              <y:Geometry height="75.666015625" width="145.0" x="628.3076392471276" y="-246.06812622070316"/>
              <y:Fill color="#E8EEF7" color2="#B7C9E3" transparent="false"/>
              <y:BorderStyle color="#000000" type="line" width="1.0"/>
              <y:NodeLabel alignment="center" autoSizePolicy="content" backgroundColor="#B7C9E3" configuration="com.yworks.entityRelationship.label.name" fontFamily="Dialog" fontSize="12" fontStyle="plain" hasLineColor="false" height="17.96875" horizontalTextPosition="center" iconTextGap="4" modelName="internal" modelPosition="t" textColor="#000000" verticalTextPosition="bottom" visible="true" width="78.501953125" x="33.2490234375" y="4.0">Metamodelo</y:NodeLabel>
              <y:NodeLabel alignment="center" autoSizePolicy="content" fontFamily="Dialog" fontSize="12" fontStyle="plain" hasBackgroundColor="false" hasLineColor="false" hasText="false" height="4.0" horizontalTextPosition="center" iconTextGap="4" modelName="custom" textColor="#000000" verticalTextPosition="bottom" visible="true" width="4.0" x="70.5" y="35.8330078125">
                <y:LabelModel>
                  <y:SmartNodeLabelModel distance="4.0"/>
                </y:LabelModel>
                <y:ModelParameter>
                  <y:SmartNodeLabelModelParameter labelRatioX="0.0" labelRatioY="0.0" nodeRatioX="0.0" nodeRatioY="0.0" offsetX="0.0" offsetY="0.0" upX="0.0" upY="-1.0"/>
                </y:ModelParameter>
              </y:NodeLabel>
              <y:NodeLabel alignment="left" autoSizePolicy="content" fontFamily="Dialog" fontSize="12" fontStyle="plain" hasBackgroundColor="false" hasLineColor="false" height="31.9375" horizontalTextPosition="center" iconTextGap="4" modelName="custom" textColor="#000000" verticalTextPosition="bottom" visible="true" width="137.91015625" x="4.0" y="37.2978515625">nombre = "biblioteca"
uri = "http://bib"<y:LabelModel>
                  <y:SmartNodeLabelModel distance="4.0"/>
                </y:LabelModel>
                <y:ModelParameter>
                  <y:SmartNodeLabelModelParameter labelRatioX="-0.5" labelRatioY="0.5" nodeRatioX="-0.5" nodeRatioY="0.41501251903667946" offsetX="4.0" offsetY="0.0" upX="0.0" upY="-1.0"/>
                </y:ModelParameter>
              </y:NodeLabel>
              <y:StyleProperties>
                <y:Property class="java.lang.Boolean" name="y.view.ShadowNodePainter.SHADOW_PAINTING" value="true"/>
              </y:StyleProperties>
            </y:GenericNode>
          </data>
        </node>
        <node id="n0::n3">
          <data key="d6">
            <y:GenericNode configuration="com.yworks.entityRelationship.big_entity">
              <y:Geometry height="56.0" width="80.0" x="591.3047909760738" y="-9.751484374999961"/>
              <y:Fill color="#E8EEF7" color2="#B7C9E3" transparent="false"/>
              <y:BorderStyle color="#000000" type="line" width="1.0"/>
              <y:NodeLabel alignment="center" autoSizePolicy="content" backgroundColor="#B7C9E3" configuration="com.yworks.entityRelationship.label.name" fontFamily="Dialog" fontSize="12" fontStyle="plain" hasLineColor="false" height="17.96875" horizontalTextPosition="center" iconTextGap="4" modelName="internal" modelPosition="t" textColor="#000000" verticalTextPosition="bottom" visible="true" width="61.0234375" x="9.48828125" y="4.0">Elemento</y:NodeLabel>
              <y:NodeLabel alignment="left" autoSizePolicy="content" configuration="com.yworks.entityRelationship.label.attributes" fontFamily="Dialog" fontSize="12" fontStyle="plain" hasBackgroundColor="false" hasLineColor="false" height="17.96875" horizontalTextPosition="center" iconTextGap="4" modelName="custom" textColor="#000000" verticalTextPosition="bottom" visible="true" width="79.0" x="2.0" y="29.96875">título = "b1"<y:LabelModel>
                  <y:ErdAttributesNodeLabelModel/>
                </y:LabelModel>
                <y:ModelParameter>
                  <y:ErdAttributesNodeLabelModelParameter/>
                </y:ModelParameter>
              </y:NodeLabel>
              <y:StyleProperties>
                <y:Property class="java.lang.Boolean" name="y.view.ShadowNodePainter.SHADOW_PAINTING" value="true"/>
              </y:StyleProperties>
            </y:GenericNode>
          </data>
        </node>
        <node id="n0::n4">
          <data key="d6">
            <y:GenericNode configuration="com.yworks.entityRelationship.big_entity">
              <y:Geometry height="56.0" width="111.0" x="717.0047909760738" y="-9.751484374999961"/>
              <y:Fill color="#E8EEF7" color2="#B7C9E3" transparent="false"/>
              <y:BorderStyle color="#000000" type="line" width="1.0"/>
              <y:NodeLabel alignment="center" autoSizePolicy="content" backgroundColor="#B7C9E3" configuration="com.yworks.entityRelationship.label.name" fontFamily="Dialog" fontSize="12" fontStyle="plain" hasLineColor="false" height="17.96875" horizontalTextPosition="center" iconTextGap="4" modelName="internal" modelPosition="t" textColor="#000000" verticalTextPosition="bottom" visible="true" width="61.0234375" x="24.98828125" y="4.0">Elemento</y:NodeLabel>
              <y:NodeLabel alignment="left" autoSizePolicy="content" configuration="com.yworks.entityRelationship.label.attributes" fontFamily="Dialog" fontSize="12" fontStyle="plain" hasBackgroundColor="false" hasLineColor="false" height="17.96875" horizontalTextPosition="center" iconTextGap="4" modelName="custom" textColor="#000000" verticalTextPosition="bottom" visible="true" width="94.28125" x="2.0" y="29.96875">nombre = "a1"<y:LabelModel>
                  <y:ErdAttributesNodeLabelModel/>
                </y:LabelModel>
                <y:ModelParameter>
                  <y:ErdAttributesNodeLabelModelParameter/>
                </y:ModelParameter>
              </y:NodeLabel>
              <y:StyleProperties>
                <y:Property class="java.lang.Boolean" name="y.view.ShadowNodePainter.SHADOW_PAINTING" value="true"/>
              </y:StyleProperties>
            </y:GenericNode>
          </data>
        </node>
        <node id="n0::n5">
          <data key="d6">
            <y:GenericNode configuration="com.yworks.entityRelationship.big_entity">
              <y:Geometry height="56.0" width="111.0" x="575.8047909760738" y="-118.07679748535156"/>
              <y:Fill color="#E8EEF7" color2="#B7C9E3" transparent="false"/>
              <y:BorderStyle color="#000000" type="line" width="1.0"/>
              <y:NodeLabel alignment="center" autoSizePolicy="content" backgroundColor="#B7C9E3" configuration="com.yworks.entityRelationship.label.name" fontFamily="Dialog" fontSize="12" fontStyle="plain" hasLineColor="false" height="17.96875" horizontalTextPosition="center" iconTextGap="4" modelName="internal" modelPosition="t" textColor="#000000" verticalTextPosition="bottom" visible="true" width="29.623046875" x="40.6884765625" y="4.0">Tipo</y:NodeLabel>
              <y:NodeLabel alignment="left" autoSizePolicy="content" configuration="com.yworks.entityRelationship.label.attributes" fontFamily="Dialog" fontSize="12" fontStyle="plain" hasBackgroundColor="false" hasLineColor="false" height="17.96875" horizontalTextPosition="center" iconTextGap="4" modelName="custom" textColor="#000000" verticalTextPosition="bottom" visible="true" width="109.205078125" x="2.0" y="29.96875">nombre = "Libro"<y:LabelModel>
                  <y:ErdAttributesNodeLabelModel/>
                </y:LabelModel>
                <y:ModelParameter>
                  <y:ErdAttributesNodeLabelModelParameter/>
                </y:ModelParameter>
              </y:NodeLabel>
              <y:StyleProperties>
                <y:Property class="java.lang.Boolean" name="y.view.ShadowNodePainter.SHADOW_PAINTING" value="true"/>
              </y:StyleProperties>
            </y:GenericNode>
          </data>
        </node>
        <node id="n0::n6">
          <data key="d6">
            <y:GenericNode configuration="com.yworks.entityRelationship.big_entity">
              <y:Geometry height="56.0" width="111.0" x="717.0047909760738" y="-118.07679748535156"/>
              <y:Fill color="#E8EEF7" color2="#B7C9E3" transparent="false"/>
              <y:BorderStyle color="#000000" type="line" width="1.0"/>
              <y:NodeLabel alignment="center" autoSizePolicy="content" backgroundColor="#B7C9E3" configuration="com.yworks.entityRelationship.label.name" fontFamily="Dialog" fontSize="12" fontStyle="plain" hasLineColor="false" height="17.96875" horizontalTextPosition="center" iconTextGap="4" modelName="internal" modelPosition="t" textColor="#000000" verticalTextPosition="bottom" visible="true" width="29.623046875" x="40.6884765625" y="4.0">Tipo</y:NodeLabel>
              <y:NodeLabel alignment="left" autoSizePolicy="content" configuration="com.yworks.entityRelationship.label.attributes" fontFamily="Dialog" fontSize="12" fontStyle="plain" hasBackgroundColor="false" hasLineColor="false" height="17.96875" horizontalTextPosition="center" iconTextGap="4" modelName="custom" textColor="#000000" verticalTextPosition="bottom" visible="true" width="112.087890625" x="2.0" y="29.96875">nombre = "Autor"<y:LabelModel>
                  <y:ErdAttributesNodeLabelModel/>
                </y:LabelModel>
                <y:ModelParameter>
                  <y:ErdAttributesNodeLabelModelParameter/>
                </y:ModelParameter>
              </y:NodeLabel>
              <y:StyleProperties>
                <y:Property class="java.lang.Boolean" name="y.view.ShadowNodePainter.SHADOW_PAINTING" value="true"/>
              </y:StyleProperties>
            </y:GenericNode>
          </data>
        </node>
      </graph>
    </node>
    <node id="n1" yfiles.foldertype="group">
      <data key="d4"/>
      <data key="d6">
        <y:ProxyAutoBoundsNode>
          <y:Realizers active="0">
            <y:GroupNode>
              <y:Geometry height="157.31492187500004" width="282.25" x="-111.4228465927163" y="38.251093749999995"/>
              <y:Fill color="#CAECFF80" transparent="false"/>
              <y:BorderStyle color="#666699" type="dotted" width="1.0"/>
              <y:NodeLabel alignment="right" autoSizePolicy="node_width" backgroundColor="#99CCFF" borderDistance="0.0" fontFamily="Dialog" fontSize="15" fontStyle="plain" hasLineColor="false" height="21.4609375" horizontalTextPosition="center" iconTextGap="4" modelName="internal" modelPosition="t" textColor="#000000" verticalTextPosition="bottom" visible="true" width="282.25" x="0.0" y="0.0">bib1.xmi</y:NodeLabel>
              <y:Shape type="roundrectangle"/>
              <y:State closed="false" closedHeight="50.0" closedWidth="50.0" innerGraphDisplayEnabled="false"/>
              <y:Insets bottom="5" bottomF="5.0" left="5" leftF="5.0" right="5" rightF="5.0" top="5" topF="5.0"/>
              <y:BorderInsets bottom="11" bottomF="10.732031250000034" left="31" leftF="30.994181431583485" right="25" rightF="25.144490443416572" top="17" topF="17.121953125000005"/>
            </y:GroupNode>
            <y:GroupNode>
              <y:Geometry height="50.0" width="50.0" x="231.0" y="410.0"/>
              <y:Fill color="#CAECFF80" transparent="false"/>
              <y:BorderStyle color="#666699" type="dotted" width="1.0"/>
              <y:NodeLabel alignment="right" autoSizePolicy="node_width" backgroundColor="#99CCFF" borderDistance="0.0" fontFamily="Dialog" fontSize="15" fontStyle="plain" hasLineColor="false" height="21.4609375" horizontalTextPosition="center" iconTextGap="4" modelName="internal" modelPosition="t" textColor="#000000" verticalTextPosition="bottom" visible="true" width="50.0" x="0.0" y="0.0">2</y:NodeLabel>
              <y:Shape type="roundrectangle"/>
              <y:State closed="true" closedHeight="50.0" closedWidth="50.0" innerGraphDisplayEnabled="false"/>
              <y:Insets bottom="5" bottomF="5.0" left="5" leftF="5.0" right="5" rightF="5.0" top="5" topF="5.0"/>
              <y:BorderInsets bottom="0" bottomF="0.0" left="0" leftF="0.0" right="0" rightF="0.0" top="0" topF="0.0"/>
            </y:GroupNode>
          </y:Realizers>
        </y:ProxyAutoBoundsNode>
      </data>
      <graph edgedefault="directed" id="n1:">
        <node id="n1::n0">
          <data key="d6">
            <y:GenericNode configuration="com.yworks.entityRelationship.big_entity">
              <y:Geometry height="56.0" width="80.0" x="-75.42866516113281" y="81.833984375"/>
              <y:Fill color="#E8EEF7" color2="#B7C9E3" transparent="false"/>
              <y:BorderStyle color="#000000" type="line" width="1.0"/>
              <y:NodeLabel alignment="center" autoSizePolicy="content" backgroundColor="#B7C9E3" configuration="com.yworks.entityRelationship.label.name" fontFamily="Dialog" fontSize="12" fontStyle="plain" hasLineColor="false" height="17.96875" horizontalTextPosition="center" iconTextGap="4" modelName="internal" modelPosition="t" textColor="#000000" verticalTextPosition="bottom" visible="true" width="41.76953125" x="19.115234375" y="4.0">: Libro</y:NodeLabel>
              <y:NodeLabel alignment="left" autoSizePolicy="content" configuration="com.yworks.entityRelationship.label.attributes" fontFamily="Dialog" fontSize="12" fontStyle="plain" hasBackgroundColor="false" hasLineColor="false" height="17.96875" horizontalTextPosition="center" iconTextGap="4" modelName="custom" textColor="#000000" verticalTextPosition="bottom" visible="true" width="79.0" x="2.0" y="29.96875">título = "b1"<y:LabelModel>
                  <y:ErdAttributesNodeLabelModel/>
                </y:LabelModel>
                <y:ModelParameter>
                  <y:ErdAttributesNodeLabelModelParameter/>
                </y:ModelParameter>
              </y:NodeLabel>
              <y:StyleProperties>
                <y:Property class="java.lang.Boolean" name="y.view.ShadowNodePainter.SHADOW_PAINTING" value="true"/>
              </y:StyleProperties>
            </y:GenericNode>
          </data>
        </node>
        <node id="n1::n1">
          <data key="d6">
            <y:GenericNode configuration="com.yworks.entityRelationship.big_entity">
              <y:Geometry height="56.0" width="93.25581856841657" x="44.40141296386717" y="123.833984375"/>
              <y:Fill color="#E8EEF7" color2="#B7C9E3" transparent="false"/>
              <y:BorderStyle color="#000000" type="line" width="1.0"/>
              <y:NodeLabel alignment="center" autoSizePolicy="content" backgroundColor="#B7C9E3" configuration="com.yworks.entityRelationship.label.name" fontFamily="Dialog" fontSize="12" fontStyle="plain" hasLineColor="false" height="17.96875" horizontalTextPosition="center" iconTextGap="4" modelName="internal" modelPosition="t" textColor="#000000" verticalTextPosition="bottom" visible="true" width="44.65234375" x="24.301737409208286" y="4.0">: Autor</y:NodeLabel>
              <y:NodeLabel alignment="left" autoSizePolicy="content" configuration="com.yworks.entityRelationship.label.attributes" fontFamily="Dialog" fontSize="12" fontStyle="plain" hasBackgroundColor="false" hasLineColor="false" height="17.96875" horizontalTextPosition="center" iconTextGap="4" modelName="custom" textColor="#000000" verticalTextPosition="bottom" visible="true" width="94.28125" x="2.0" y="29.96875">nombre = "a1"<y:LabelModel>
                  <y:ErdAttributesNodeLabelModel/>
                </y:LabelModel>
                <y:ModelParameter>
                  <y:ErdAttributesNodeLabelModelParameter/>
                </y:ModelParameter>
              </y:NodeLabel>
              <y:StyleProperties>
                <y:Property class="java.lang.Boolean" name="y.view.ShadowNodePainter.SHADOW_PAINTING" value="true"/>
              </y:StyleProperties>
            </y:GenericNode>
          </data>
        </node>
      </graph>
    </node>
    <node id="n2" yfiles.foldertype="group">
      <data key="d4"/>
      <data key="d6">
        <y:ProxyAutoBoundsNode>
          <y:Realizers active="0">
            <y:GroupNode>
              <y:Geometry height="297.294921875" width="282.25000000000006" x="-111.4228465927163" y="-284.4609375"/>
              <y:Fill color="#CAECFF84" transparent="false"/>
              <y:BorderStyle color="#666699" type="dotted" width="1.0"/>
              <y:NodeLabel alignment="right" autoSizePolicy="node_width" backgroundColor="#99CCFF" borderDistance="0.0" fontFamily="Dialog" fontSize="15" fontStyle="plain" hasLineColor="false" height="21.4609375" horizontalTextPosition="center" iconTextGap="4" modelName="internal" modelPosition="t" textColor="#000000" verticalTextPosition="bottom" visible="true" width="282.25000000000006" x="0.0" y="0.0">biblioteca.ecore</y:NodeLabel>
              <y:Shape type="roundrectangle"/>
              <y:State closed="false" closedHeight="50.0" closedWidth="50.0" innerGraphDisplayEnabled="false"/>
              <y:Insets bottom="15" bottomF="15.0" left="15" leftF="15.0" right="15" rightF="15.0" top="15" topF="15.0"/>
              <y:BorderInsets bottom="0" bottomF="0.0" left="0" leftF="0.0" right="0" rightF="0.0" top="19" topF="18.833984375"/>
            </y:GroupNode>
            <y:GroupNode>
              <y:Geometry height="50.0" width="50.0" x="60.0" y="60.0"/>
              <y:Fill color="#CAECFF80" transparent="false"/>
              <y:BorderStyle color="#666699" type="dotted" width="1.0"/>
              <y:NodeLabel alignment="right" autoSizePolicy="node_width" backgroundColor="#99CCFF" borderDistance="0.0" fontFamily="Dialog" fontSize="15" fontStyle="plain" hasLineColor="false" height="21.4609375" horizontalTextPosition="center" iconTextGap="4" modelName="internal" modelPosition="t" textColor="#000000" verticalTextPosition="bottom" visible="true" width="65.201171875" x="-7.6005859375" y="0.0">Folder 1</y:NodeLabel>
              <y:Shape type="roundrectangle"/>
              <y:State closed="true" closedHeight="50.0" closedWidth="50.0" innerGraphDisplayEnabled="false"/>
              <y:Insets bottom="5" bottomF="5.0" left="5" leftF="5.0" right="5" rightF="5.0" top="5" topF="5.0"/>
              <y:BorderInsets bottom="0" bottomF="0.0" left="0" leftF="0.0" right="0" rightF="0.0" top="0" topF="0.0"/>
            </y:GroupNode>
          </y:Realizers>
        </y:ProxyAutoBoundsNode>
      </data>
      <graph edgedefault="directed" id="n2:">
        <node id="n2::n0">
          <data key="d6">
            <y:ShapeNode>
              <y:Geometry height="204.0" width="252.25000000000006" x="-96.4228465927163" y="-206.166015625"/>
              <y:Fill color="#FFFFFF" transparent="false"/>
              <y:BorderStyle color="#000000" type="line" width="1.0"/>
              <y:NodeLabel alignment="center" autoSizePolicy="content" fontFamily="Dialog" fontSize="12" fontStyle="plain" hasBackgroundColor="false" hasLineColor="false" hasText="false" height="4.0" horizontalTextPosition="center" iconTextGap="4" modelName="internal" modelPosition="tr" textColor="#000000" verticalTextPosition="bottom" visible="true" width="4.0" x="244.25000000000006" y="4.0"/>
              <y:Shape type="rectangle"/>
            </y:ShapeNode>
          </data>
        </node>
        <node id="n2::n1">
          <data key="d6">
            <y:ShapeNode>
              <y:Geometry height="23.0" width="192.23664122137404" x="-96.4228465927163" y="-229.166015625"/>
              <y:Fill color="#FFFFFF" transparent="false"/>
              <y:BorderStyle color="#000000" type="line" width="1.0"/>
              <y:NodeLabel alignment="center" autoSizePolicy="content" fontFamily="Dialog" fontSize="12" fontStyle="plain" hasBackgroundColor="false" hasLineColor="false" height="17.96875" horizontalTextPosition="center" iconTextGap="4" modelName="internal" modelPosition="c" textColor="#000000" verticalTextPosition="bottom" visible="true" width="168.091796875" x="12.072422173187022" y="2.515625">biblioteca (uri="http://bib")</y:NodeLabel>
              <y:Shape type="rectangle"/>
            </y:ShapeNode>
          </data>
        </node>
        <node id="n2::n2">
          <data key="d6">
            <y:GenericNode configuration="com.yworks.entityRelationship.big_entity">
              <y:Geometry height="56.0" width="119.0" x="-75.42866516113281" y="-176.166015625"/>
              <y:Fill color="#E8EEF7" color2="#B7C9E3" transparent="false"/>
              <y:BorderStyle color="#000000" type="line" width="1.0"/>
              <y:NodeLabel alignment="center" autoSizePolicy="content" backgroundColor="#B7C9E3" configuration="com.yworks.entityRelationship.label.name" fontFamily="Dialog" fontSize="12" fontStyle="plain" hasLineColor="false" height="17.96875" horizontalTextPosition="center" iconTextGap="4" modelName="internal" modelPosition="t" textColor="#000000" verticalTextPosition="bottom" visible="true" width="33.912109375" x="42.5439453125" y="4.0">Libro</y:NodeLabel>
              <y:NodeLabel alignment="left" autoSizePolicy="content" configuration="com.yworks.entityRelationship.label.attributes" fontFamily="Dialog" fontSize="12" fontStyle="plain" hasBackgroundColor="false" hasLineColor="false" height="17.96875" horizontalTextPosition="center" iconTextGap="4" modelName="custom" textColor="#000000" verticalTextPosition="bottom" visible="true" width="98.0546875" x="2.0" y="29.96875">nombre : String<y:LabelModel>
                  <y:ErdAttributesNodeLabelModel/>
                </y:LabelModel>
                <y:ModelParameter>
                  <y:ErdAttributesNodeLabelModelParameter/>
                </y:ModelParameter>
              </y:NodeLabel>
              <y:StyleProperties>
                <y:Property class="java.lang.Boolean" name="y.view.ShadowNodePainter.SHADOW_PAINTING" value="true"/>
              </y:StyleProperties>
            </y:GenericNode>
          </data>
        </node>
        <node id="n2::n3">
          <data key="d6">
            <y:GenericNode configuration="com.yworks.entityRelationship.big_entity">
              <y:Geometry height="56.0" width="119.0" x="17.571334838867188" y="-90.166015625"/>
              <y:Fill color="#E8EEF7" color2="#B7C9E3" transparent="false"/>
              <y:BorderStyle color="#000000" type="line" width="1.0"/>
              <y:NodeLabel alignment="center" autoSizePolicy="content" backgroundColor="#B7C9E3" configuration="com.yworks.entityRelationship.label.name" fontFamily="Dialog" fontSize="12" fontStyle="plain" hasLineColor="false" height="17.96875" horizontalTextPosition="center" iconTextGap="4" modelName="internal" modelPosition="t" textColor="#000000" verticalTextPosition="bottom" visible="true" width="36.794921875" x="41.1025390625" y="4.0">Autor</y:NodeLabel>
              <y:NodeLabel alignment="left" autoSizePolicy="content" configuration="com.yworks.entityRelationship.label.attributes" fontFamily="Dialog" fontSize="12" fontStyle="plain" hasBackgroundColor="false" hasLineColor="false" height="17.96875" horizontalTextPosition="center" iconTextGap="4" modelName="custom" textColor="#000000" verticalTextPosition="bottom" visible="true" width="98.0546875" x="2.0" y="29.96875">nombre : String<y:LabelModel>
                  <y:ErdAttributesNodeLabelModel/>
                </y:LabelModel>
                <y:ModelParameter>
                  <y:ErdAttributesNodeLabelModelParameter/>
                </y:ModelParameter>
              </y:NodeLabel>
              <y:StyleProperties>
                <y:Property class="java.lang.Boolean" name="y.view.ShadowNodePainter.SHADOW_PAINTING" value="true"/>
              </y:StyleProperties>
            </y:GenericNode>
          </data>
        </node>
      </graph>
    </node>
    <node id="n3" yfiles.foldertype="group">
      <data key="d6">
        <y:TableNode configuration="com.yworks.bpmn.Pool">
          <y:Geometry height="210.62890625" width="361.24160156250014" x="194.35254403228373" y="-29.54296875"/>
          <y:Fill color="#FFF2BC" color2="#D4D4D4CC" transparent="false"/>
          <y:BorderStyle color="#000000" type="line" width="1.0"/>
          <y:NodeLabel alignment="center" autoSizePolicy="content" fontFamily="Dialog" fontSize="15" fontStyle="plain" hasBackgroundColor="false" hasLineColor="false" height="21.4609375" horizontalTextPosition="center" iconTextGap="4" modelName="internal" modelPosition="l" rotationAngle="270.0" textColor="#000000" verticalTextPosition="bottom" visible="true" width="136.97119140625" x="4.0" y="36.828857421875">Índice de ficheros</y:NodeLabel>
          <y:NodeLabel alignment="center" autoSizePolicy="content" fontFamily="Dialog" fontSize="12" fontStyle="plain" hasBackgroundColor="false" hasLineColor="false" hasText="false" height="4.0" horizontalTextPosition="center" iconTextGap="4" modelName="custom" rotationAngle="270.0" textColor="#000000" verticalTextPosition="bottom" visible="true" width="4.0" x="33.0" y="49.271484375">
            <y:LabelModel>
              <y:RowNodeLabelModel offset="3.0"/>
            </y:LabelModel>
            <y:ModelParameter>
              <y:RowNodeLabelModelParameter horizontalPosition="0.0" id="row_0" inside="true"/>
            </y:ModelParameter>
          </y:NodeLabel>
          <y:NodeLabel alignment="center" autoSizePolicy="content" fontFamily="Dialog" fontSize="12" fontStyle="plain" hasBackgroundColor="false" hasLineColor="false" hasText="false" height="4.0" horizontalTextPosition="center" iconTextGap="4" modelName="custom" rotationAngle="270.0" textColor="#000000" verticalTextPosition="bottom" visible="true" width="4.0" x="33.0" y="111.814453125">
            <y:LabelModel>
              <y:RowNodeLabelModel offset="3.0"/>
            </y:LabelModel>
            <y:ModelParameter>
              <y:RowNodeLabelModelParameter horizontalPosition="0.0" id="row_1" inside="true"/>
            </y:ModelParameter>
          </y:NodeLabel>
          <y:NodeLabel alignment="center" autoSizePolicy="content" fontFamily="Dialog" fontSize="12" fontStyle="plain" hasBackgroundColor="false" hasLineColor="false" hasText="false" height="4.0" horizontalTextPosition="center" iconTextGap="4" modelName="custom" rotationAngle="270.0" textColor="#000000" verticalTextPosition="bottom" visible="true" width="4.0" x="33.0" y="174.357421875">
            <y:LabelModel>
              <y:RowNodeLabelModel offset="3.0"/>
            </y:LabelModel>
            <y:ModelParameter>
              <y:RowNodeLabelModelParameter horizontalPosition="0.0" id="row_2" inside="true"/>
            </y:ModelParameter>
          </y:NodeLabel>
          <y:NodeLabel alignment="center" autoSizePolicy="content" fontFamily="Dialog" fontSize="12" fontStyle="plain" hasBackgroundColor="false" hasLineColor="false" height="17.96875" horizontalTextPosition="center" iconTextGap="4" modelName="custom" textColor="#000000" verticalTextPosition="bottom" visible="true" width="37.55078125" x="133.5229492187501" y="3.0">Clave<y:LabelModel>
              <y:ColumnNodeLabelModel offset="3.0"/>
            </y:LabelModel>
            <y:ModelParameter>
              <y:ColumnNodeLabelModelParameter id="column_0" inside="true" verticalPosition="0.0"/>
            </y:ModelParameter>
          </y:NodeLabel>
          <y:NodeLabel alignment="center" autoSizePolicy="content" fontFamily="Dialog" fontSize="12" fontStyle="plain" hasBackgroundColor="false" hasLineColor="false" height="17.96875" horizontalTextPosition="center" iconTextGap="4" modelName="custom" textColor="#000000" verticalTextPosition="bottom" visible="true" width="35.171875" x="286.1232421875002" y="3.0">Valor<y:LabelModel>
              <y:ColumnNodeLabelModel offset="3.0"/>
            </y:LabelModel>
            <y:ModelParameter>
              <y:ColumnNodeLabelModelParameter id="column_1" inside="true" verticalPosition="0.0"/>
            </y:ModelParameter>
          </y:NodeLabel>
          <y:StyleProperties>
            <y:Property class="java.awt.Color" name="com.yworks.bpmn.icon.line.color" value="#000000"/>
            <y:Property name="y.view.tabular.TableNodePainter.ALTERNATE_ROW_STYLE">
              <y:SimpleStyle fillColor="#474A4340" lineColor="#000000" lineType="line" lineWidth="1.0"/>
            </y:Property>
            <y:Property name="y.view.tabular.TableNodePainter.ALTERNATE_COLUMN_SELECTION_STYLE">
              <y:SimpleStyle fillColor="#474A4380" lineColor="#000000" lineType="line" lineWidth="3.0"/>
            </y:Property>
            <y:Property name="y.view.tabular.TableNodePainter.ALTERNATE_ROW_SELECTION_STYLE">
              <y:SimpleStyle fillColor="#474A4380" lineColor="#000000" lineType="line" lineWidth="3.0"/>
            </y:Property>
            <y:Property class="java.awt.Color" name="POOL_LANE_COLOR_ALTERNATING" value="#ffffff"/>
            <y:Property class="java.awt.Color" name="POOL_LANE_COLOR_MAIN" value="#ffffff"/>
            <y:Property class="java.lang.String" name="POOL_LANE_STYLE" value="LANE_STYLE_ROWS"/>
            <y:Property class="java.awt.Color" name="com.yworks.bpmn.icon.fill2" value="#d4d4d4"/>
            <y:Property class="java.awt.Color" name="com.yworks.bpmn.icon.fill" value="#ffffff"/>
            <y:Property class="com.yworks.yfiles.bpmn.view.BPMNTypeEnum" name="com.yworks.bpmn.type" value="POOL_TYPE_LANE_AND_COLUMN"/>
            <y:Property name="y.view.tabular.TableNodePainter.ALTERNATE_COLUMN_STYLE">
              <y:SimpleStyle fillColor="#474A4340" lineColor="#000000" lineType="line" lineWidth="1.0"/>
            </y:Property>
          </y:StyleProperties>
          <y:State autoResize="true" closed="false" closedHeight="80.0" closedWidth="100.0"/>
          <y:Insets bottom="0" bottomF="0.0" left="0" leftF="0.0" right="0" rightF="0.0" top="0" topF="0.0"/>
          <y:BorderInsets bottom="140" bottomF="139.83742187499996" left="5" leftF="4.784955967716257" right="26" rightF="26.396992187500018" top="8" topF="7.791484375000039"/>
          <y:Table autoResizeTable="true" defaultColumnWidth="180.0" defaultMinimumColumnWidth="30.0" defaultMinimumRowHeight="30.0" defaultRowHeight="100.0">
            <y:DefaultColumnInsets bottom="3.0" left="3.0" right="3.0" top="20.0"/>
            <y:DefaultRowInsets bottom="3.0" left="20.0" right="3.0" top="3.0"/>
            <y:Insets bottom="0.0" left="30.0" right="0.0" top="0.0"/>
            <y:Columns>
              <y:Column id="column_0" minimumWidth="80.625" width="204.59667968750017">
                <y:Insets bottom="3.0" left="3.0" right="3.0" top="20.0"/>
              </y:Column>
              <y:Column id="column_1" minimumWidth="80.625" width="98.22499999999997">
                <y:Insets bottom="3.0" left="3.0" right="3.0" top="20.0"/>
              </y:Column>
            </y:Columns>
            <y:Rows>
              <y:Row height="62.54296875" id="row_0" minimumHeight="62.54296875">
                <y:Insets bottom="3.0" left="20.0" right="3.0" top="3.0"/>
              </y:Row>
              <y:Row height="62.54296875" id="row_1" minimumHeight="62.54296875">
                <y:Insets bottom="3.0" left="20.0" right="3.0" top="3.0"/>
              </y:Row>
              <y:Row height="62.54296875" id="row_2" minimumHeight="62.54296875">
                <y:Insets bottom="3.0" left="20.0" right="3.0" top="3.0"/>
              </y:Row>
            </y:Rows>
          </y:Table>
        </y:TableNode>
      </data>
      <graph edgedefault="directed" id="n3:">
        <node id="n3::n0">
          <data key="d6">
            <y:GenericNode configuration="com.yworks.entityRelationship.attribute">
              <y:Geometry height="40.0" width="47.0" x="479.1971534072838" y="-1.7514843749999613"/>
              <y:Fill color="#FFFFFF" color2="#FFFFFF" transparent="false"/>
              <y:BorderStyle color="#000000" type="dashed" width="1.0"/>
              <y:NodeLabel alignment="center" autoSizePolicy="content" fontFamily="Dialog" fontSize="12" fontStyle="plain" hasBackgroundColor="false" hasLineColor="false" hasText="false" height="4.0" horizontalTextPosition="center" iconTextGap="4" modelName="custom" textColor="#000000" verticalTextPosition="bottom" visible="true" width="4.0" x="21.5" y="18.0">
                <y:LabelModel>
                  <y:SmartNodeLabelModel distance="4.0"/>
                </y:LabelModel>
                <y:ModelParameter>
                  <y:SmartNodeLabelModelParameter labelRatioX="0.0" labelRatioY="0.0" nodeRatioX="0.0" nodeRatioY="0.0" offsetX="0.0" offsetY="0.0" upX="0.0" upY="-1.0"/>
                </y:ModelParameter>
              </y:NodeLabel>
              <y:StyleProperties>
                <y:Property class="java.lang.Boolean" name="y.view.ShadowNodePainter.SHADOW_PAINTING" value="true"/>
              </y:StyleProperties>
            </y:GenericNode>
          </data>
        </node>
        <node id="n3::n1">
          <data key="d6">
            <y:ShapeNode>
              <y:Geometry height="30.0" width="30.0" x="323.41504403228373" y="3.2485156250000387"/>
              <y:Fill hasColor="false" transparent="false"/>
              <y:BorderStyle hasColor="false" type="line" width="1.0"/>
              <y:NodeLabel alignment="center" autoSizePolicy="content" borderDistance="0.0" fontFamily="Dialog" fontSize="12" fontStyle="plain" hasBackgroundColor="false" hasLineColor="false" height="17.96875" horizontalTextPosition="center" iconTextGap="4" modelName="custom" textColor="#000000" verticalTextPosition="bottom" visible="true" width="188.125" x="-74.27754403228374" y="6.015625">http://servidor/ruta + bib1.xmi<y:LabelModel>
                  <y:SmartNodeLabelModel distance="0.0"/>
                </y:LabelModel>
                <y:ModelParameter>
                  <y:SmartNodeLabelModelParameter labelRatioX="0.0" labelRatioY="0.0" nodeRatioX="0.15949853225720856" nodeRatioY="0.0" offsetX="0.0" offsetY="0.0" upX="0.0" upY="-1.0"/>
                </y:ModelParameter>
              </y:NodeLabel>
              <y:Shape type="rectangle"/>
            </y:ShapeNode>
          </data>
        </node>
      </graph>
    </node>
    <edge id="n2::e0" source="n2::n3" target="n2::n2">
      <data key="d10">
        <y:ArcEdge>
          <y:Path sx="-21.291845374390196" sy="27.98395909380531" tx="15.315331827799454" ty="0.8460156250000068">
            <y:Point x="-5.746303558349609" y="-74.13824462890625"/>
          </y:Path>
          <y:LineStyle color="#000000" type="line" width="1.0"/>
          <y:Arrows source="none" target="standard"/>
          <y:EdgeLabel alignment="center" configuration="AutoFlippingLabel" distance="2.0" fontFamily="Dialog" fontSize="12" fontStyle="plain" hasBackgroundColor="false" hasLineColor="false" height="17.96875" horizontalTextPosition="center" iconTextGap="4" modelName="free" modelPosition="anywhere" preferredPlacement="anywhere" ratio="0.5" textColor="#000000" verticalTextPosition="bottom" visible="true" width="46.626953125" x="-55.35007906921642" y="-12.692793425892432">* libros<y:PreferredPlacementDescriptor angle="0.0" angleOffsetOnRightSide="0" angleReference="absolute" angleRotationOnRightSide="co" distance="-1.0" frozen="true" placement="anywhere" side="anywhere" sideReference="relative_to_edge_flow"/>
          </y:EdgeLabel>
          <y:Arc height="37.24020004272461" ratio="1.178362488746643" type="fixedRatio"/>
        </y:ArcEdge>
      </data>
    </edge>
    <edge id="e0" source="n1" target="n1">
      <data key="d10">
        <y:ArcEdge>
          <y:Path sx="0.0" sy="0.0" tx="0.0" ty="0.0">
            <y:Point x="29.7021541595459" y="116.90855407714844"/>
          </y:Path>
          <y:LineStyle color="#000000" type="line" width="1.0"/>
          <y:Arrows source="none" target="standard"/>
          <y:Arc height="0.0" ratio="1.0" type="fixedRatio"/>
        </y:ArcEdge>
      </data>
    </edge>
    <edge id="e1" source="n1" target="n1">
      <data key="d10">
        <y:ArcEdge>
          <y:Path sx="0.0" sy="0.0" tx="0.0" ty="0.0">
            <y:Point x="29.7021541595459" y="116.90855407714844"/>
          </y:Path>
          <y:LineStyle color="#000000" type="line" width="1.0"/>
          <y:Arrows source="none" target="standard"/>
          <y:Arc height="0.0" ratio="1.0" type="fixedRatio"/>
        </y:ArcEdge>
      </data>
    </edge>
    <edge id="n1::e0" source="n1::n1" target="n1::n0">
      <data key="d10">
        <y:ArcEdge>
          <y:Path sx="0.0" sy="0.0" tx="0.0" ty="0.0">
            <y:Point x="17.30032730102539" y="162.448486328125"/>
          </y:Path>
          <y:LineStyle color="#000000" type="line" width="1.0"/>
          <y:Arrows source="none" target="standard"/>
          <y:EdgeLabel alignment="center" configuration="AutoFlippingLabel" distance="2.0" fontFamily="Dialog" fontSize="12" fontStyle="plain" hasBackgroundColor="false" hasLineColor="false" height="17.96875" horizontalTextPosition="center" iconTextGap="4" modelName="free" modelPosition="anywhere" preferredPlacement="anywhere" ratio="0.5" textColor="#000000" verticalTextPosition="bottom" visible="true" width="36.8125" x="-55.4565464312047" y="-1.6158269222736408">libros<y:PreferredPlacementDescriptor angle="0.0" angleOffsetOnRightSide="0" angleReference="absolute" angleRotationOnRightSide="co" distance="-1.0" frozen="true" placement="anywhere" side="anywhere" sideReference="relative_to_edge_flow"/>
          </y:EdgeLabel>
          <y:Arc height="33.31255340576172" ratio="1.0" type="fixedRatio"/>
        </y:ArcEdge>
      </data>
    </edge>
    <edge id="n1::e1" source="n1::n1" target="n1::n1">
      <data key="d10">
        <y:ArcEdge>
          <y:Path sx="0.0" sy="0.0" tx="0.0" ty="0.0">
            <y:Point x="91.0293197631836" y="151.833984375"/>
          </y:Path>
          <y:LineStyle color="#000000" type="line" width="1.0"/>
          <y:Arrows source="none" target="standard"/>
          <y:Arc height="0.0" ratio="1.0" type="fixedRatio"/>
        </y:ArcEdge>
      </data>
    </edge>
    <edge id="e2" source="n1::n0" target="n2::n2">
      <data key="d10">
        <y:ArcEdge>
          <y:Path sx="0.0" sy="0.0" tx="0.0" ty="0.0">
            <y:Point x="-57.71929168701172" y="-21.587690353393555"/>
          </y:Path>
          <y:LineStyle color="#000000" type="dashed" width="1.0"/>
          <y:Arrows source="none" target="short"/>
          <y:EdgeLabel alignment="center" configuration="AutoFlippingLabel" distance="2.0" fontFamily="Dialog" fontSize="12" fontStyle="plain" hasBackgroundColor="false" hasLineColor="false" height="17.96875" horizontalTextPosition="center" iconTextGap="4" modelName="free" modelPosition="anywhere" preferredPlacement="anywhere" ratio="0.5" textColor="#000000" verticalTextPosition="bottom" visible="true" width="76.955078125" x="-6.311946868896484" y="-65.81106567382812">instancia de<y:PreferredPlacementDescriptor angle="0.0" angleOffsetOnRightSide="0" angleReference="absolute" angleRotationOnRightSide="co" distance="-1.0" frozen="true" placement="anywhere" side="anywhere" sideReference="relative_to_edge_flow"/>
          </y:EdgeLabel>
          <y:Arc height="32.132015228271484" ratio="0.49675387144088745" type="fixedRatio"/>
        </y:ArcEdge>
      </data>
    </edge>
    <edge id="e3" source="n1::n1" target="n2::n3">
      <data key="d10">
        <y:ArcEdge>
          <y:Path sx="0.0" sy="0.0" tx="0.0" ty="0.0">
            <y:Point x="65.69898986816406" y="46.03093719482422"/>
          </y:Path>
          <y:LineStyle color="#000000" type="dashed" width="1.0"/>
          <y:Arrows source="none" target="short"/>
          <y:EdgeLabel alignment="center" configuration="AutoFlippingLabel" distance="2.0" fontFamily="Dialog" fontSize="12" fontStyle="plain" hasBackgroundColor="false" hasLineColor="false" height="17.96875" horizontalTextPosition="center" iconTextGap="4" modelName="custom" preferredPlacement="anywhere" ratio="0.5" textColor="#000000" verticalTextPosition="bottom" visible="true" width="76.955078125" x="-18.288874863608818" y="-107.46990549403648">instancia de<y:LabelModel>
              <y:SmartEdgeLabelModel autoRotationEnabled="false" defaultAngle="0.0" defaultDistance="10.0"/>
            </y:LabelModel>
            <y:ModelParameter>
              <y:SmartEdgeLabelModelParameter angle="6.283185307179586" distance="32.88611465224395" distanceToCenter="true" position="right" ratio="0.34635565278048086" segment="-1"/>
            </y:ModelParameter>
            <y:PreferredPlacementDescriptor angle="0.0" angleOffsetOnRightSide="0" angleReference="absolute" angleRotationOnRightSide="co" distance="-1.0" frozen="true" placement="anywhere" side="anywhere" sideReference="relative_to_edge_flow"/>
          </y:EdgeLabel>
          <y:Arc height="18.39032554626465" ratio="0.34301555156707764" type="fixedRatio"/>
        </y:ArcEdge>
      </data>
    </edge>
    <edge id="n0::e0" source="n0::n1" target="n0::n3">
      <data key="d10">
        <y:ArcEdge>
          <y:Path sx="0.0" sy="0.0" tx="0.0" ty="0.0">
            <y:Point x="638.6963500976562" y="90.34398651123047"/>
          </y:Path>
          <y:LineStyle color="#000000" type="line" width="1.0"/>
          <y:Arrows source="standard" target="none"/>
          <y:EdgeLabel alignment="center" bottomInset="0" configuration="AutoFlippingLabel" distance="2.0" fontFamily="Dialog" fontSize="12" fontStyle="plain" hasBackgroundColor="false" hasLineColor="false" height="13.96875" horizontalTextPosition="center" iconTextGap="4" leftInset="0" modelName="custom" preferredPlacement="anywhere" ratio="0.5" rightInset="0" textColor="#000000" topInset="0" verticalTextPosition="bottom" visible="true" width="41.419921875" x="-52.46031273450717" y="-29.18821640230186">fichero<y:LabelModel>
              <y:SmartEdgeLabelModel autoRotationEnabled="false" defaultAngle="0.0" defaultDistance="10.0"/>
            </y:LabelModel>
            <y:ModelParameter>
              <y:SmartEdgeLabelModelParameter angle="6.283185307179586" distance="10.0" distanceToCenter="false" position="left" ratio="0.6524562475949574" segment="-1"/>
            </y:ModelParameter>
            <y:PreferredPlacementDescriptor angle="0.0" angleOffsetOnRightSide="0" angleReference="absolute" angleRotationOnRightSide="co" distance="-1.0" frozen="true" placement="anywhere" side="anywhere" sideReference="relative_to_edge_flow"/>
          </y:EdgeLabel>
          <y:Arc height="32.41107940673828" ratio="1.0" type="fixedRatio"/>
        </y:ArcEdge>
      </data>
    </edge>
    <edge id="n0::e1" source="n0::n1" target="n0::n4">
      <data key="d10">
        <y:ArcEdge>
          <y:Path sx="0.0" sy="0.0" tx="0.0" ty="0.0">
            <y:Point x="762.2145385742188" y="89.71234893798828"/>
          </y:Path>
          <y:LineStyle color="#000000" type="line" width="1.0"/>
          <y:Arrows source="standard" target="none"/>
          <y:EdgeLabel alignment="center" configuration="AutoFlippingLabel" distance="2.0" fontFamily="Dialog" fontSize="12" fontStyle="plain" hasBackgroundColor="false" hasLineColor="false" height="17.96875" horizontalTextPosition="center" iconTextGap="4" modelName="custom" preferredPlacement="anywhere" ratio="0.5" textColor="#000000" verticalTextPosition="bottom" visible="true" width="45.419921875" x="9.064499687724265" y="-28.76199475496273">fichero<y:LabelModel>
              <y:SmartEdgeLabelModel autoRotationEnabled="false" defaultAngle="0.0" defaultDistance="10.0"/>
            </y:LabelModel>
            <y:ModelParameter>
              <y:SmartEdgeLabelModelParameter angle="0.0" distance="30.0" distanceToCenter="true" position="right" ratio="0.5" segment="-1"/>
            </y:ModelParameter>
            <y:PreferredPlacementDescriptor angle="0.0" angleOffsetOnRightSide="0" angleReference="absolute" angleRotationOnRightSide="co" distance="-1.0" frozen="true" placement="anywhere" side="anywhere" sideReference="relative_to_edge_flow"/>
          </y:EdgeLabel>
          <y:Arc height="-30.554773330688477" ratio="-0.9341551065444946" type="fixedRatio"/>
        </y:ArcEdge>
      </data>
    </edge>
    <edge id="n0::e2" source="n0::n3" target="n0::n5">
      <data key="d10">
        <y:ArcEdge>
          <y:Path sx="0.0" sy="0.0" tx="0.0" ty="0.0">
            <y:Point x="631.3048095703125" y="-35.91414260864258"/>
          </y:Path>
          <y:LineStyle color="#000000" type="line" width="1.0"/>
          <y:Arrows source="none" target="standard"/>
          <y:EdgeLabel alignment="center" configuration="AutoFlippingLabel" distance="2.0" fontFamily="Dialog" fontSize="12" fontStyle="plain" hasBackgroundColor="false" hasLineColor="false" height="17.96875" horizontalTextPosition="center" iconTextGap="4" modelName="custom" preferredPlacement="center_left" ratio="0.5" textColor="#000000" verticalTextPosition="bottom" visible="true" width="26.998046875" x="-36.99805220480073" y="-28.599417285136248">tipo<y:LabelModel>
              <y:SmartEdgeLabelModel autoRotationEnabled="false" defaultAngle="0.0" defaultDistance="10.0"/>
            </y:LabelModel>
            <y:ModelParameter>
              <y:SmartEdgeLabelModelParameter angle="6.283185307179586" distance="10.0" distanceToCenter="false" position="left" ratio="0.5" segment="0"/>
            </y:ModelParameter>
            <y:PreferredPlacementDescriptor angle="0.0" angleOffsetOnRightSide="0" angleReference="absolute" angleRotationOnRightSide="co" distance="-1.0" placement="center" side="left" sideReference="relative_to_edge_flow"/>
          </y:EdgeLabel>
          <y:Arc height="5.760732619819464E-6" ratio="2.1271971206715534E-7" type="fixedRatio"/>
        </y:ArcEdge>
      </data>
    </edge>
    <edge id="n0::e3" source="n0::n4" target="n0::n6">
      <data key="d10">
        <y:ArcEdge>
          <y:Path sx="0.0" sy="0.0" tx="0.0" ty="0.0">
            <y:Point x="772.5047607421875" y="-35.91414260864258"/>
          </y:Path>
          <y:LineStyle color="#000000" type="line" width="1.0"/>
          <y:Arrows source="none" target="standard"/>
          <y:EdgeLabel alignment="center" configuration="AutoFlippingLabel" distance="2.0" fontFamily="Dialog" fontSize="12" fontStyle="plain" hasBackgroundColor="false" hasLineColor="false" height="17.96875" horizontalTextPosition="center" iconTextGap="4" modelName="custom" preferredPlacement="anywhere" ratio="0.5" textColor="#000000" verticalTextPosition="bottom" visible="true" width="26.998046875" x="5.2902367370032835" y="-28.599419706098224">tipo<y:LabelModel>
              <y:SmartEdgeLabelModel autoRotationEnabled="false" defaultAngle="0.0" defaultDistance="10.0"/>
            </y:LabelModel>
            <y:ModelParameter>
              <y:SmartEdgeLabelModelParameter angle="0.0" distance="5.2902280708480145" distanceToCenter="false" position="right" ratio="0.5" segment="0"/>
            </y:ModelParameter>
            <y:PreferredPlacementDescriptor angle="0.0" angleOffsetOnRightSide="0" angleReference="absolute" angleRotationOnRightSide="co" distance="-1.0" frozen="true" placement="anywhere" side="anywhere" sideReference="relative_to_edge_flow"/>
          </y:EdgeLabel>
          <y:Arc height="-1.2362263078102842E-5" ratio="-4.5648656055163883E-7" type="fixedRatio"/>
        </y:ArcEdge>
      </data>
    </edge>
    <edge id="n0::e4" source="n0::n4" target="n0::n3">
      <data key="d10">
        <y:ArcEdge>
          <y:Path sx="0.0" sy="0.0" tx="0.0" ty="0.0">
            <y:Point x="701.90478515625" y="18.248516082763672"/>
          </y:Path>
          <y:LineStyle color="#000000" type="line" width="1.0"/>
          <y:Arrows source="none" target="standard"/>
          <y:EdgeLabel alignment="center" configuration="AutoFlippingLabel" distance="2.0" fontFamily="Dialog" fontSize="12" fontStyle="plain" hasBackgroundColor="false" hasLineColor="false" height="17.96875" horizontalTextPosition="center" iconTextGap="4" modelName="free" modelPosition="anywhere" preferredPlacement="anywhere" ratio="0.5" textColor="#000000" verticalTextPosition="bottom" visible="true" width="36.8125" x="-40.841934957906005" y="9.004391733444571">libros<y:PreferredPlacementDescriptor angle="0.0" angleOffsetOnRightSide="0" angleReference="absolute" angleRotationOnRightSide="co" distance="-1.0" frozen="true" placement="anywhere" side="anywhere" sideReference="relative_to_edge_flow"/>
          </y:EdgeLabel>
          <y:Arc height="7.909109172032913E-7" ratio="2.2405416189030802E-8" type="fixedRatio"/>
        </y:ArcEdge>
      </data>
    </edge>
    <edge id="n0::e5" source="n0::n5" target="n0::n2">
      <data key="d10">
        <y:ArcEdge>
          <y:Path sx="24.319617530414956" sy="13.819999999999993" tx="-46.403769618221304" ty="28.083634033203197">
            <y:Point x="655.01416015625" y="-128.2041473388672"/>
          </y:Path>
          <y:LineStyle color="#000000" type="line" width="1.0"/>
          <y:Arrows source="none" target="standard"/>
          <y:EdgeLabel alignment="center" configuration="AutoFlippingLabel" distance="2.0" fontFamily="Dialog" fontSize="12" fontStyle="plain" hasBackgroundColor="false" hasLineColor="false" height="17.96875" horizontalTextPosition="center" iconTextGap="4" modelName="custom" preferredPlacement="anywhere" ratio="0.5" textColor="#000000" verticalTextPosition="bottom" visible="true" width="79.837890625" x="-82.8438502515512" y="-32.96131710607665">metamodelo<y:LabelModel>
              <y:SmartEdgeLabelModel autoRotationEnabled="false" defaultAngle="0.0" defaultDistance="10.0"/>
            </y:LabelModel>
            <y:ModelParameter>
              <y:SmartEdgeLabelModelParameter angle="0.0" distance="2.6186049822728195" distanceToCenter="false" position="left" ratio="0.5" segment="-1"/>
            </y:ModelParameter>
            <y:PreferredPlacementDescriptor angle="0.0" angleOffsetOnRightSide="0" angleReference="absolute" angleRotationOnRightSide="co" distance="-1.0" frozen="true" placement="anywhere" side="anywhere" sideReference="relative_to_edge_flow"/>
          </y:EdgeLabel>
          <y:Arc height="7.4653667070379015E-6" ratio="2.874006952424679E-7" type="fixedRatio"/>
        </y:ArcEdge>
      </data>
    </edge>
    <edge id="n0::e6" source="n0::n6" target="n0::n2">
      <data key="d10">
        <y:ArcEdge>
          <y:Path sx="0.0" sy="0.0" tx="42.0" ty="21.68363403320319">
            <y:Point x="757.6561889648438" y="-138.31414794921875"/>
          </y:Path>
          <y:LineStyle color="#000000" type="line" width="1.0"/>
          <y:Arrows source="none" target="standard"/>
          <y:EdgeLabel alignment="center" configuration="AutoFlippingLabel" distance="2.0" fontFamily="Dialog" fontSize="12" fontStyle="plain" hasBackgroundColor="false" hasLineColor="false" height="17.96875" horizontalTextPosition="center" iconTextGap="4" modelName="custom" preferredPlacement="anywhere" ratio="0.5" textColor="#000000" verticalTextPosition="bottom" visible="true" width="98.91015625" x="-27.003523521568127" y="-38.01918363794687">     metamodelo<y:LabelModel>
              <y:SmartEdgeLabelModel autoRotationEnabled="false" defaultAngle="0.0" defaultDistance="10.0"/>
            </y:LabelModel>
            <y:ModelParameter>
              <y:SmartEdgeLabelModelParameter angle="6.283185307179586" distance="29.999999999999954" distanceToCenter="true" position="right" ratio="0.0" segment="-1"/>
            </y:ModelParameter>
            <y:PreferredPlacementDescriptor angle="0.0" angleOffsetOnRightSide="0" angleReference="absolute" angleRotationOnRightSide="co" distance="-1.0" frozen="true" placement="anywhere" side="anywhere" sideReference="relative_to_edge_flow"/>
          </y:EdgeLabel>
          <y:Arc height="-5.086354121885961E-6" ratio="-2.015555224943455E-7" type="fixedRatio"/>
        </y:ArcEdge>
      </data>
    </edge>
    <edge id="n0::e7" source="n0::n0::n0" target="n0::n2">
      <data key="d10">
        <y:ArcEdge>
          <y:Path sx="0.0" sy="0.0" tx="-35.584790976073805" ty="-25.306992187499986">
            <y:Point x="581.8059692382812" y="-225.23419189453125"/>
          </y:Path>
          <y:LineStyle color="#000000" type="dashed" width="1.0"/>
          <y:Arrows source="none" target="standard"/>
          <y:Arc height="9.94911003112793" ratio="0.23905479907989502" type="fixedRatio"/>
        </y:ArcEdge>
      </data>
    </edge>
    <edge id="e4" source="n3::n0" target="n0::n1">
      <data key="d10">
        <y:ArcEdge>
          <y:Path sx="0.0" sy="0.0" tx="0.0" ty="0.0">
            <y:Point x="592.7894897460938" y="89.193115234375"/>
          </y:Path>
          <y:LineStyle color="#000000" type="dashed" width="1.0"/>
          <y:Arrows source="none" target="standard"/>
          <y:Arc height="-18.535863876342773" ratio="-0.3275916576385498" type="fixedRatio"/>
        </y:ArcEdge>
      </data>
    </edge>
  </graph>
  <data key="d7">
    <y:Resources/>
  </data>
</graphml>
